12 finding, exploring, and cleaning data | Data science for the liberal arts
…
(SchoolsWithSameNamesInEnrollments <- EnrollmentsFromFHSAA |> 
    group_by(school_name) |>
    filter(n() > 1) |> 
    select (school_name, school_place))

## # A tibble: 26 × 2
## # Groups:   school_name [13]
##    school_name          school_place  
##    <chr>                <chr>         
##  1 "AMERICAN HERITAGE " Delray Beach) 
##  2 "AMERICAN HERITAGE " Plantation)   
##  3 "ATLANTIC "          Delray Beach) 
##  4 "ATLANTIC "          Port Orange)  
##  5 "CENTRAL "           Brooksville)  
##  6 "CENTRAL "           Milton)       
##  7 "CYPRESS CREEK "     Orlando)      
##  8 "CYPRESS CREEK "     Wesley Chapel)
##  9 "FREEDOM "           Orlando)      
## 10 "FREEDOM "           Tampa)        
## # ℹ 16 more rows

There are 12 schools (6 pairs) in our FloridaHighSchools data, and 26 schools (13 pairs) in the EnrollmentsFromFHSAA data. How might we fix these?

12.4 can we merge the remaining data?

We will set these aside and merge the remaining data.

(SchoolsWithUniqueNamesInFHS <- FloridaHighSchools |> 
    group_by(school_name) |>
    filter(n() == 1))

## # A tibble: 439 × 11
## # Groups:   school_name [439]
##    district_number district_name school_number school_name                      
##    <chr>           <chr>         <chr>         <chr>                            
##  1 01              ALACHUA       0151          "GAINESVILLE "                   
##  2 01              ALACHUA       0201          "HAWTHORNE "                     
##  3 01              ALACHUA       0261          "NEWBERRY "                      
##  4 01              ALACHUA       0271          "SANTA FE "                      
##  5 01              ALACHUA       0411          "PROFESSIONAL ACADEMY MAGNET AT …
##  6 01              ALACHUA       0421          "EASTSIDE "                      
##  7 01              ALACHUA       0431          "F. W. BUCHHOLZ "                
##  8 02              BAKER         0012          "BAKER COUNTY "                  
##  9 03              BAY           0061          "BAY "                           
## 10 03              BAY           0341          "RUTHERFORD "                    
## # ℹ 429 more rows
## # ℹ 7 more variables: english_language_arts_achievement <dbl>,
## #   mathematics_achievement <dbl>, science_achievement <dbl>,
## #   social_studies_achievement <dbl>, graduation_rate_2022_23 <dbl>,
## #   grade_2024 <chr>, percent_of_economically_disadvantaged_students <dbl>

(SchoolsWithUniqueNamesInEnrollments <- EnrollmentsFromFHSAA |> 
    group_by(school_name) |>
    filter(n() == 1))

## # A tibble: 520 × 6
## # Groups:   school_name [520]
##    school_name            school_place      class region district est_enrollment
##    <chr>                  <chr>             <chr> <chr>  <chr>             <dbl>
##  1 "ALL SAINTS' "         Winter Haven)     Inde… Indep… Indepen…             NA
##  2 "ALONSO "              Tampa)            7A    2      7                  2512
##  3 "AMERICAN "            Hialeah)          4A    4      16                 1543
##  4 "ANCLOTE "             Holiday)          3A    3      9                  1167
##  5 "ANDREW JACKSON "      Jacksonville)     2A    1      4                   644
##  6 "APOPKA"               <NA>              7A    2      5                  2512
##  7 "ARCHBISHOP CARROLL "  Miami)            1A    4      15                   61
##  8 "ARCHBISHOP MCCARTHY " Southwest Ranche… 4A    4      15                 1543
##  9 "ARMWOOD "             Seffner)          6A    2      8                  2136
## 10 "ARNOLD "              Panama City Beac… 4A    1      2                  1543
## # ℹ 510 more rows
…
