14 strings, factors, dates, and times | Data science for the liberal arts
…
Use the syntax above to create types of names for different generations (boomers, gen x, Millenials, gen z). Use https://www.kasasa.com/articles/generations/gen-x-gen-y-gen-z to determine your groupings.

Say something interesting about the data - names, genders, etc. Plot this.

14.2.2 types of grown-ups

If you would instead like to examine survey data, the forcats package includes a set of categorical variables.

Using the discussion in Chapter 15 of R4DS as your guide, examine the relationship between two or more of these categorical variables. Again, plot these

gss_cat

## # A tibble: 21,483 × 9
##     year marital         age race  rincome        partyid    relig denom tvhours
##    <int> <fct>         <int> <fct> <fct>          <fct>      <fct> <fct>   <int>
##  1  2000 Never married    26 White $8000 to 9999  Ind,near … Prot… Sout…      12
##  2  2000 Divorced         48 White $8000 to 9999  Not str r… Prot… Bapt…      NA
##  3  2000 Widowed          67 White Not applicable Independe… Prot… No d…       2
##  4  2000 Never married    39 White Not applicable Ind,near … Orth… Not …       4
##  5  2000 Divorced         25 White Not applicable Not str d… None  Not …       1
##  6  2000 Married          25 White $20000 - 24999 Strong de… Prot… Sout…      NA
##  7  2000 Never married    36 White $25000 or more Not str r… Chri… Not …       3
##  8  2000 Divorced         44 White $7000 to 7999  Ind,near … Prot… Luth…      NA
##  9  2000 Married          44 White $25000 or more Not str d… Prot… Other       0
## 10  2000 Married          47 White $25000 or more Strong re… Prot… Sout…       3
## # ℹ 21,473 more rows
…
